…
data %<>% mutate(
        day = parse_date(date, "%Y-%m-%d"),
        day_of_week = wday(day, label = TRUE),
        weekday = ifelse(day_of_week %in% c("Sat", "Sun"), "Weekend", "Weekday")
        )

sthlm_data <- data %>%
        filter(sub_region_1 == "Stockholm County" & sub_region_2 != "") 

sthlm_data %>%
        group_by(sub_region_2) %>%
        tally()
```

    ## # A tibble: 26 x 2
    ##    sub_region_2               n
    ##  * <chr>                  <int>
    ##  1 Botkyrka Municipality    383
    ##  2 Danderyd Municipality    360
    ##  3 Ekerö Municipality       358
    ##  4 Haninge Municipality     379
    ##  5 Huddinge Municipality    385
    ##  6 Järfälla Municipality    382
    ##  7 Lidingö kommun           360
    ##  8 Nacka Municipality       379
    ##  9 Norrtälje Municipality   379
    ## 10 Nykvarn Municipality     250
    ## # … with 16 more rows
…
